<svg width="383" height="543" viewBox="0 0 383 543" fill="none" xmlns="http://www.w3.org/2000/svg">
<g id="3. Gradient" filter="url(#filter0_f_54705_115)">
<circle cx="-11" cy="149" r="114" fill="#F7630C"/>
</g>
<defs>
<filter id="filter0_f_54705_115" x="-405" y="-245" width="788" height="788" filterUnits="userSpaceOnUse" color-interpolation-filters="sRGB">
<feFlood flood-opacity="0" result="BackgroundImageFix"/>
<feBlend mode="normal" in="SourceGraphic" in2="BackgroundImageFix" result="shape"/>
<feGaussianBlur stdDeviation="140" result="effect1_foregroundBlur_54705_115"/>
</filter>
</defs>
</svg>
